…
## What is mean total number of steps taken per day?

Carving out the Non-NA values  
The total number of steps taken per day


```r
Day_average <- watch_ds %>% 
        group_by(date) %>% 
        summarise(total_steps = sum(steps, na.rm = T), na = mean(is.na(steps)))
Day_average
```

```
## # A tibble: 61 x 3
##    date       total_steps    na
##    <date>           <int> <dbl>
##  1 2012-10-01           0     1
##  2 2012-10-02         126     0
##  3 2012-10-03       11352     0
##  4 2012-10-04       12116     0
##  5 2012-10-05       13294     0
##  6 2012-10-06       15420     0
##  7 2012-10-07       11015     0
##  8 2012-10-08           0     1
##  9 2012-10-09       12811     0
## 10 2012-10-10        9900     0
## # ... with 51 more rows
```
…
